{
    "LOGOURL": "img/logo.png",
    "READACCOUNTSBASIC": "Basic Account Information",
    "READACCOUNTSBASIC_ELEMENTS": "Includes information such as account name and currency.",
    "READACCOUNTSDETAIL": "Detailed Account Information",
    "READACCOUNTSDETAIL_ELEMENTS": "Includes basic account information along with more details such as the IBAN/ Account No.",
    "READBENEFICIARIESBASIC": "Basic Payee Information",
    "READBENEFICIARIESBASIC_ELEMENTS": "Includes information such as the name of the payee.",
    "READBENEFICIARIESDETAIL": "Detailed Payee Information",
    "READBENEFICIARIESDETAIL_ELEMENTS": "Includes basic payee information along with the account details of the beneficiary.",
    "READSTANDINGORDERSBASIC": "Basic Standing Order Information",
    "READSTANDINGORDERSBASIC_ELEMENTS": "Includes details of standing orders such as the currency, frequency and payment dates.",
    "READSTANDINGORDERSDETAIL": "Detailed Standing Order Information",
    "READSTANDINGORDERSDETAIL_ELEMENTS": "Includes basic standing order details along with account details of the creditor.",

    "ALLREADTRANSACTIONSBASIC": "Basic Transaction Information",
    "ALLREADTRANSACTIONSBASIC_ELEMENTS": "Includes information on transactions such as the amount, currency, status of transaction among other information",
    "READTRANSACTIONSCREDITSBASIC": "Basic Transaction Information",
    "READTRANSACTIONSCREDITSBASIC_ELEMENTS": "Includes information on credit transactions only, such as the amount, currency, status of transaction among other information",
    "READTRANSACTIONSDEBITSBASIC": "Basic Transaction Information",
    "READTRANSACTIONSDEBITSBASIC_ELEMENTS": "Includes information on debit transactions only, such as the amount, currency, status of transaction among other information",

    "ALLREADTRANSACTIONSDETAIL": "Detailed Transaction Information",
    "ALLREADTRANSACTIONSDETAIL_ELEMENTS": "Includes basic information on transactions along with transaction narrative, running balance and  merchant details if any",
    "READTRANSACTIONSCREDITSDETAIL": "Detailed Transaction Information",
    "READTRANSACTIONSCREDITSDETAIL_ELEMENTS": "Includes basic information on credit transactions only along with transaction narrative, running balance and  merchant details if any",
    "READTRANSACTIONSDEBITSDETAIL": "Detailed Transaction Information",
    "READTRANSACTIONSDEBITSDETAIL_ELEMENTS": "Includes basic information on debit transactions only, along with transaction narrative, running balance and  merchant details if any",

    "READPRODUCTS": "Product Information",
    "READPRODUCTS_ELEMENTS": "Includes the product type e.g. Current Account.",
    "READACCOUNTS": "Basic Account Information",
    "READACCOUNTS_ELEMENTS": "OBReadAccount1, Account, AccountId, Currency, Nickname",
    "READACCOUNTSSENSITIVE": "Account Identification Details",
    "READACCOUNTSSENSITIVE_ELEMENTS": "Account, SchemeName, Identification, Name, SecondaryIdentification, Servicer, SchemeName, Identification",
    "READBALANCES": "Balance Information",
    "READBALANCES_ELEMENTS": "Includes information such as the amount, currency and type of balance.",
    "READBENEFICIARIES": "Basic Beneficiary Details",
    "READBENEFICIARIES_ELEMENTS": "OBReadBeneficiary1, Beneficiary, AccountId, BeneficiaryId, CreditorReferenceInformation",
    "READBENEFICIARIESSENSITIVE": "Identification Details For The Beneficiar",
    "READBENEFICIARIESSENSITIVE_ELEMENTS": "Servicer, SchemeName, Identification, CreditorAccount, SchemeName, Identification, Name, SecondaryIdentification",
    "READDIRECTDEBITS": "Direct Debit Information",
    "READDIRECTDEBITS_ELEMENTS": "Includes details of direct debits such as the name of the service user and the most recent payment.",
    "READSTANDINGORDERS": "Standing Order Information",
    "READSTANDINGORDERS_ELEMENTS": "OBReadStandingOrder1, StandingOrder, AccountId, StandingOrderId, Currency, Frequency, CreditorReferenceInformation, FirstPaymentDate, FirstPaymentAmount, Currency, NextPaymentDate, NextPaymentAmount, Currency, FinalPaymentDate, FinalPaymentAmount, Currency",
    "READSTANDINGORDERSSENSITIVE": "Identification Details For The Standing Order",
    "READSTANDINGORDERSSENSITIVE_ELEMENTS": "Servicer, SchemeName, Identification, CreditorAccount, SchemeName, Identification, Name, SecondaryIdentification",

    "READTRANSACTIONS": "Basic Transaction Information",
    "READTRANSACTIONS_ELEMENTS": "Includes basic information on transactions along with transaction narrative, running balance and  merchant details if any.",
    "READTRANSACTIONSCREDITS": "Only Credit Transactions",
    "READTRANSACTIONSCREDITS_ELEMENTS": "Includes basic information on credit transactions only along with transaction narrative, running balance and  merchant details if any.",
    "READTRANSACTIONSDEBITS": "Only Debit Transactions",
    "READTRANSACTIONSDEBITS_ELEMENTS": "Includes basic information on debit transactions only, along with transaction narrative, running balance and  merchant details if any.",

    "READTRANSACTIONSSENSITIVE": "Transaction Data Elements Which May Hold Silent Party Details",
    "READTRANSACTIONSSENSITIVE_ELEMENTS": "TransactionInformation, Balance, Amount, Currency, CreditDebitIndicator, Type, MerchantDetails, Name, MerchantCategoryCode",
    "ACCT_SELECTION": "Account Selection",
    "PRE_USER_TITLE_TEXT": "",
    "POST_USER_TITLE_TEXT": "has requested access to your account. Select the account you want to authorise access to",
    "POST_USER_TITLE_TEXT_REVIEW": "has requested repeat access to following information",
    "SELECT_ACCOUNT_TITLE": "Selected Account(s)",
    "SEL_ACCOUNT_TITLE": "Select Account(s)",
    "SEL_ACCOUNT_TITLE_SINGLE": "Select Account",
    "PERMISSION_TITLE": "Requested Permission(s)",
    "ACCOUNT_BUTTON": "Select Account",
    "DELETE_BUTTON": "Delete",
    "ALLOW_BUTTON": "Allow",
    "DONOT_ALLOW_BUTTON": "Don't Allow",
    "BACK_BUTTON": "Back",
    "CANCEL": "Cancel",
    "NEXT": "Next",
    "ACCOUNT_NAME": "Account Name",
    "ACCOUNT_TYPE": "Account Type",
    "CURRENCY": "Currency",
    "ACCOUNT_NUMBER": "IBAN / Account No.",
    "NICK_NAME": "Nickname",
    "PRE_TILL_DATE_TEXT": "The consent access is valid till",
    "POST_TILL_DATE_TEXT": "",
    "EXPIRY_INVALID_DATE_TEXT": "The consent access is valid indefinitely",
    "I_ACCEPT": "I accept",
    "TERM_CONDITION": "Terms & Conditions",
    "I_CONSENT": "I consent to this access request",
    "ACCEPT_CONSENT_REQUEST": "I consent to this access request",
    "ACCEPT_PAYMENT_REQUEST": "I consent to this payment",
    "COPY_RIGHT": "&copy; 2017 All rights reserved",
    "PRIVACY_POLICY": "Privacy Policy",
    "TERM_USE": "Terms of use",
    "SECURITY": "Security",
    "COOKIES": "Cookies",
    "TNC": "Term and Conditions",
    "HELP": "Help",
    "AFFILATES": "Affilates",
    "PAYMENT_CONSENT": "Payment Consent",
    "REVIEW_CONSENT": "Review Consent",
    "REVIEW_CONFIRM": "Review & Confirm",
    "PAYMENT_CHECK_TITLE_TEXT": "Please check the details below are correct. Select 'Cancel' if you no longer wish to continue with this payment",
    "PAYMENT_INFO": "Payment Information",
    "PAYMENT_INITED_BY": "Payment Intiated By",
    "PAYMENT_INITIATED_BY": "Payment Initiated By",
    "PAYEE_NAME": "Payee Name",
    "PAYEE_ADDRESS": "Payee Address",
    "PAYEE_DETAILS": "Payee Details",
    "PAYEE_REFERENCE": "Reference",
    "AMOUNT": "Amount",
    "PAY_FROM": "Pay From ",
    "SELECT_ACCOUNT": "Select Account",
    "SELECT_ACCT_PAGINATION": "Select Accounts Pagination",
    "I_ACCEPT_THE": "I accept the",
    "CANCEL_BUTTON": "Cancel",
    "CONTINUE_BUTTON": "Continue",
    "CONFIRM_BUTTON": "Confirm",
    "PAY_BUTTON": "Pay Now",
    "OK_BUTTON": "Ok",
    "REMOVE": "Remove",
    "BANK_LOGO": "Alpha Bank Logo",
    "SEARCH_BY_ACCTNO": "Search by account number",
    "ARIA_REMOVE_SELECTED_ACCOUNT": "Remove selected account ",
    "ARIA_CONFIRM_BTN_ENABLE": "Allow button enable",
    "ARIA_RADIO_BTN": "Radio button",
    "SELECT_ALL": "Select All",
    "IMPORTANT_INFO": "Important Info",
    "NO_DATA_FOUND": "No accounts found.",
    "IMPORTANT_INFO_DESCRIPTION": "You can revoke access to the service through the third party provider or by calling bank.",
    "YES_BUTTON": "Yes",
    "NO_BUTTON": "No",
    "ACCESS_DATE": "Requested Transaction Access",
    "FROM_DATE": "From Date :",
    "TO_DATE": "To Date :",
    "SHOW_ALL": "Show All",
    "SHOW_LESS": "Show Less",
    "SHOW_MORE": "Show More",
    "ARIA_ALLOW_CONSENT": "Allow button enable",
    "NO_FROM_DATE_CONSENT": "Not Specified",
    "NO_TO_DATE_CONSENT": "Not Specified",
    "RETRY_BUTTON": "Retry",
    "DISCLAIMER_DETAILS": [
        "Lorem Ipsum is simply dummy text of the printing and typesetting industry. Lorem Ipsum has been the industry's standard dummy text ever since the 1500s, when an unknown printer took a galley of type and scrambled it to make a type specimen book. It has survived not only five centuries, but also the leap into electronic typesetting, remaining essentially unchanged.",
        "It was popularised in the 1960s with the release of Letraset sheets containing Lorem Ipsum passages, and more recently with desktop publishing software like Aldus PageMaker including versions of Lorem Ipsum.contrary to popular belief, Lorem Ipsum is not simply random text. It has roots in a piece of classical Latin literature from 45 BC, making it over 2000 years old. Richard McClintock, a Latin professor at Hampden-Sydney College in Virginia, looked up one of the more obscure Latin words, consectetur, from a Lorem Ipsum passage, and going through the cites of the word in classical literature, discovered the undoubtable source."
    ],
    "TERM_CONDITION_DETAILS": [
        "I agree to abide by the Bank's Terms and Conditions and rules in force and the changes thereto in Terms and Conditions from time to time relating to my account as communicated and made available on the Bank's website.",
        "1.1 The Customer agrees and confirms that the Customer shall ensure that all the details of any orders placed are stored accurately by the Customer, including, without limitation, price payable etc.",
        "1.2  If required by the Bank, the Customer shall communicate the payment instructions and provide to the Bank such details as the Bank may require in respect of the payments to be made including, without limitation, details in respect of the website on which the purchase order was placed and the relevant Customer order number that was issued. The Customer shall keep the Bank saved, protected and harmless from any loss caused from any inaccuracies in this regard. The Customer agrees that in the event of any alleged fraudulent use of the Account through the Internet, the Customer shall be solely and exclusively responsible for all losses cause thereby and shall not hold the Bank liable for any loss caused thereby."
    ],
    "CANCEL_POPUP_BODY": "I agree to abide by the Bank's Terms and Conditions and rules in force and the changes thereto in Terms and Conditions from time to time relating to my account as communicated and made available on the Bank's website.",
    "CANCEL_POPUP_HEADER": "Change Text",
    "NO_CONSENT_DATE": "Not Specified",
    "SESSION_TIMEOUT_POPUP_HEADER": "Session time-out",
    "SESSION_TIMEOUT_POPUP_BODY": "Session has been invalidated now",
    "CONSENT_REVIEW_PROVIDED_LABEL": "Please review & provide consent",
    "110": "Technical Error.",
    "111": "Mandatory header missing.",
    "112": "Error while establishing connection,please try again.",
    "113": "Invalid access-token provided by TPP.",
    "114": "Technical Error.",
    "115": "Technical Error.",
    "116": "Invalid access-token provided by TPP.",
    "117": "No required scope present in the token to access API.",
    "118": "Insufficient claims/permissions assigned in the access-token.",
    "119": "For the given account,user is not authorized to access the requested resource.",
    "120": "Un-recognized access-token.",
    "121": "Access-Token is not having active state.",
    "122": "Access token/consent has been revoked.",
    "123": "Provided access-token has been expired, please renew.",
    "124": "Invalid access token.",
    "125": "No Account id found in the request.",
    "126": "Validation error found with the provided input.",
    "127": "No data found for the requested account.",
    "128": "Validation error found with the provided ouput.",
    "129": "Technical Error.",
    "130": "Consent already exists.",
    "131": "No Consent found.",
    "132": "No account details found.",
    "133": "No account request data found.",
    "134": "Selected accounts/account does not belong to the customer.",
    "135": "No accounts selected by the customer.",
    "136": "Permissions in account request is either empty or invalid.",
    "137": "Provided account setup request has been expired, please create new.",
    "138": "Invalid payload structure in request.",
    "139": "Invalid access by other tpp user.",
    "140": "No data found for the requested login id & password.",
    "141": "Error Found in fetching Tpp Information.",
    "500": "You are not authorized to use this service.",
    "501": "The request can not be processed,Account not found.",
    "502": "No account details found for the requested account(s).",
    "503": "Technical Error.Please try again later.",
    "504": "Bad request.Please check your request.",
    "505": "No Account data found.",
    "506": "No Account data found in foundation service.",
    "507": "Invalid amount found in foundation service.",
    "508": "Invalid currency found in foundation service.",
    "509": "Invalid nick name found in foundation service.",
    "510": "Invalid identification found in foundation service.",
    "511": "No Account ID found.",
    "512": "No channel present in the request.",
    "513": "No account nsc present in the request.",
    "514": "No transaction details found for the requested account(s).",
    "515": "Connection error.",
    "516": "Invalid IBAN Length.",
    "517": "Not a SEPA IBAN.",
    "518": "Invalid IBAN checksum.",
    "519": "No such SEPA BIC.",
    "520": "BIC is not reachable.",
    "521": "BIC and IBAN do not match.",
    "522": "Not a valid NSC.",
    "523": "Not a valid Account Number.",
    "524": "Not a valid Currency.",
    "525": "Not open account exists.",
    "526": "The account status must be active.",
    "701": "Invalid ID Token.",
    "702": "Access Expired.",
    "703": "TPP is blocked.",
    "704": "No valid consent type found.",
    "705": "No valid or sufficiant roles found.",
    "706": "Technical Error.",
    "707": "Validation error found with the provided input.",
    "708": "Invalid access-token provided by TPP.",
    "709": "The consent has been expired.",
    "710": "User Authentication expired, please authenticate.",
    "711": "Un-recognized access-token.",
    "712": "User has not been authenticated.",
    "713": "Mandatory parameter of grant type missing.",
    "714": "Mandatory parameter of scopes missing.",
    "715": "Invalid scopes provided.",
    "716": "No roles defined for the TPP.",
    "717": "No policy defined for the current roles of the TPP.",
    "718": "For the current flow of consent,the requested scopes are not correct.",
    "719": "For the current flow of consent,the requested grant type is not correct.",
    "720": "Insufficient roles or scopes of TPP to initiate such consent flow.",
    "721": "For the requested scopes,TPP has not been authorized.",
    "722": "Some of the URL query parameter tempered or changed during transit.",
    "723": "For the provided request id, access token has already been issued.",
    "724": "No redirect URI provided by the caller.",
    "725": "No such record exist against the requested request id.",
    "726": "No permissions available with the provided setup request id.",
    "727": "Setup record is having invalid status & does not comply with current flow.",
    "728": "No consent present for the current request",
    "729": "Access-Token is not having active state",
    "730": "Validation error due to invalid inputs.",
    "731": "Session has been invalidated now",
    "732": "Pre Authorisation validation failed",
    "800": "Technical Error.Please try again later",
    "801": "Bad request.Please check your request",
    "802": "No valid Brand id provided in request.",
    "803": "No valid channel found.",
    "804": "Authentication failed.",
    "805": "No such record exist against the requested request id",
    "806": "Setup record is having invalid status & does not comply with current flow",
    "901": "Payment setup request is not having valid data.",
    "902": "Technical error, while creating payment setup resource in platform.",
    "903": "Technical error, while updating payment setup resource in platform.",
    "904": "Technical error, during pre-stage payment validation from platform to bank",
    "905": "Technical error, during pre-stage payment insertion from platform to bank.",
    "906": "Payment setup resource is not created successfully at bank end.",
    "907": "Technical error, during pre-stage payment updation from platform to bank.",
    "908": "While doing payment idempotency check, payment request & bank response are not matched.",
    "909": "Payment Submission Request Payload is  invalid.",
    "910": "Payment setup request payload is found INVALID.",
    "911": "Field 'Data' is missing from payment request payload.",
    "912": "Field 'Data' is missing from submission request payload.",
    "913": "Field 'Initiation' is missing from payment request payload.",
    "914": "Field 'Initiation' is missing from submission request payload.",
    "915": "Field 'InstructedAmount' is missing from request payload.",
    "916": "Field 'CreditorAgent' is missing from request payload.",
    "917": "Field 'CreditorAccount' is missing from request payload.",
    "918": "Debtor agent details are found but field 'DebtorAccount' details are missing.",
    "919": "Debtor account details are found but field 'DebtorAgent' details are missing.",
    "920": "Field 'Risk' is missing from request payload.",
    "921": "PostCode is not in valid format.",
    "922": "Technical error, while fetching payment setup resource from platform.",
    "923": "Technical error, while fetching payment setup resource from platform for idempotency check.",
    "924": "Payment setup id is not found in platform.",
    "925": "No Payment setup resource found against given TPP.",
    "926": "Staged Payment setup details are not found in bank for given paymentId.",
    "927": "Technical error, while fetching payment setup resource from bank.",
    "928": "Payment submission resource is not created successfully at bank end.",
    "929": "Pre stage payment setup validation is failed at bank end.",
    "930": "Technical error, during submission validation from platform to bank.",
    "931": "Technical error, while making payment initiation from platform to bank.",
    "932": "PaymentId is not valid against the submission request.",
    "933": "While doing payment initiation, payment submission request & payment bank response are not matched.",
    "934": "Pre submission validation is failed at bank end.",
    "935": "Staged payment setup resource is expired.",
    "936": "Payment Id is already used for other payment initiation.",
    "937": "Technical error, while creating submission resource in platform.",
    "938": "Technical error, while updating submission resource in platform.",
    "939": "Technical error, while fetching submission details by paymentId from platform.",
    "940": "Technical error, while fetching payment setup resource from platform for idempotency check.",
    "941": "Technical error, while fetching submission details by submissionId from platform.",
    "942": "Payment submission id is not found in system.",
    "943": "No Payment submission resources found against given TPP.",
    "944": "Technical error, while updating the consent status in platform.",
    "945": "Technical error, while retrieving consent details from platform.",
    "946": "Technical error, while revoking the token in platform.",
    "947": "Staged Payment Setup resource is not having valid status to proceed the payment initiation.",
    "948": "Payer is not having valid permission to initiate the payment.",
    "949": "Length of value for AddressLine is greater than defined length.",
    "950": "Length of value for CountrySubDivision is greater than defined length.",
    "951": "Header 'x-idempotency-key' can not be blank.",
    "952": "Length of header 'x-idempotency-key' can not be more than defined size.",
    "953": "Found exception in method containsSpecialCharacters.",
    "954": "Country code is not valid.",
    "955": "BBAN Identification value of Creditor/Debtor Account is not valid.",
    "956": "IBAN Identification value of Creditor/Debtor Account is not valid.",
    "957": "Currency code is not valid.",
    "958": "Idempotency duration is not configured in correct format.",
    "959": "Due to duplicate paymentId, payment setup resource is not updated successfully.",
    "999": "Data not available",
    "INFOJSONDATA": {
        "HEADING1": "Daily Limits",
        "DESC1": "Any payment, or combination of payments made across 365 Digital Banking Channels (includes this method of paying directly from your account) that exceeds the working day transaction limit of 20,000, or available funds, will not be processed.",
        "HEADING2": "Cut-off Times",
        "DESC2": "Payments that are requested <a href='goole.com'>google</a> after the daily cut-off time Monday to Friday (4.30pm), or at any time on a Saturday, Sunday or Bank Holiday will be processed on the next working day.  Cut-off time information",
        "HEADING3": "",
        "DESC3": " <a href='http://www.google.com'>Cut-off time information</a>",
        "HEADING4": "",
        "DESC4": "",
        "HEADING5": "",
        "DESC5": ""
    },
    "POPUP_DISPLAYED": " Pop Up Open",
    "PRESS_NO": "Press No button will close the pop up ",
    "PRESS_CANCEL": "press cancel button will open the pop up"
}